[api-updater (non-obsolete-error-filter)] 25.02.2021 19:24:30 : Starting D:/Александр/2020.2.0f1/Editor/Data/Tools/ScriptUpdater/APIUpdater.NonObsoleteApiUpdaterDetector.exe
[api-updater (non-obsolete-error-filter)] 
----------------------------------
jit/startup time      : 243,3586ms
moved types parse time: 52ms
candidates parse time : 1ms
C# parse time         : 237ms
candidates check time : 40ms
console write time    : 0ms

[api-updater (non-obsolete-error-filter)] 25.02.2021 19:25:33 : Starting D:/Александр/2020.2.0f1/Editor/Data/Tools/ScriptUpdater/APIUpdater.NonObsoleteApiUpdaterDetector.exe
[api-updater (non-obsolete-error-filter)] 
----------------------------------
jit/startup time      : 97,0569ms
moved types parse time: 60ms
candidates parse time : 1ms
C# parse time         : 213ms
candidates check time : 30ms
console write time    : 0ms

[api-updater (non-obsolete-error-filter)] 25.02.2021 19:33:46 : Starting D:/Александр/2020.2.0f1/Editor/Data/Tools/ScriptUpdater/APIUpdater.NonObsoleteApiUpdaterDetector.exe
[api-updater (non-obsolete-error-filter)] 
----------------------------------
jit/startup time      : 86,7965ms
moved types parse time: 53ms
candidates parse time : 1ms
C# parse time         : 198ms
candidates check time : 32ms
console write time    : 0ms

[api-updater (non-obsolete-error-filter)] 25.02.2021 19:34:50 : Starting D:/Александр/2020.2.0f1/Editor/Data/Tools/ScriptUpdater/APIUpdater.NonObsoleteApiUpdaterDetector.exe
[api-updater (non-obsolete-error-filter)] 
----------------------------------
jit/startup time      : 84,7737ms
moved types parse time: 52ms
candidates parse time : 1ms
C# parse time         : 207ms
candidates check time : 33ms
console write time    : 0ms

[api-updater (non-obsolete-error-filter)] 25.02.2021 20:23:25 : Starting D:/Александр/2020.2.0f1/Editor/Data/Tools/ScriptUpdater/APIUpdater.NonObsoleteApiUpdaterDetector.exe
[api-updater (non-obsolete-error-filter)] 
----------------------------------
jit/startup time      : 85,7742ms
moved types parse time: 61ms
candidates parse time : 1ms
C# parse time         : 207ms
candidates check time : 71ms
console write time    : 0ms

